Semestre_2/Circuitos_Digitais/Sea_Battle/Quartus II/simulation/qsim/Sea_Battle.msim.vcd
$comment
	File created using the following command:
		vcd file Sea_Battle.msim.vcd -direction
$end
$date
	Tue Dec 03 17:24:57 2019
$end
$version
	ModelSim Version 10.1d
$end
$timescale
	1ps
$end
$scope module Sea_Battle_vlg_vec_tst $end
$var reg 1 ! FIRE $end
$var reg 1 " N1 $end
$var reg 1 # N2 $end
$var reg 1 $ N3 $end
$var reg 1 % N4 $end
$var reg 1 & N5 $end
$var reg 1 ' N6 $end
$var reg 1 ( N7 $end
$var reg 1 ) N8 $end
$var reg 1 * U1 $end
$var reg 1 + U2 $end
$var reg 1 , U3 $end
$var reg 1 - U4 $end
$var wire 1 . HIT $end
$var wire 1 / MISS $end
$var wire 1 0 sampler $end
$scope module i1 $end
$var wire 1 1 gnd $end
$var wire 1 2 vcc $end
$var wire 1 3 unknown $end
$var tri1 1 4 devclrn $end
$var tri1 1 5 devpor $end
$var tri1 1 6 devoe $end
$var wire 1 7 inst57~0_combout $end
$var wire 1 8 inst56~0_combout $end
$var wire 1 9 inst88~0_combout $end
$var wire 1 : inst~0_combout $end
$var wire 1 ; U1~combout $end
$var wire 1 < N6~combout $end
$var wire 1 = N2~combout $end
$var wire 1 > U3~combout $end
$var wire 1 ? N1~combout $end
$var wire 1 @ N3~combout $end
$var wire 1 A N4~combout $end
$var wire 1 B inst18~0_combout $end
$var wire 1 C inst89~1_combout $end
$var wire 1 D U4~combout $end
$var wire 1 E inst17~0_combout $end
$var wire 1 F kkk~0_combout $end
$var wire 1 G U2~combout $end
$var wire 1 H inst89~0_combout $end
$var wire 1 I inst89~2_combout $end
$var wire 1 J N8~combout $end
$var wire 1 K N7~combout $end
$var wire 1 L N5~combout $end
$var wire 1 M inst59~0_combout $end
$var wire 1 N inst58~0_combout $end
$var wire 1 O inst88~1_combout $end
$var wire 1 P inst88~2_combout $end
$var wire 1 Q inst91~0_combout $end
$var wire 1 R FIRE~combout $end
$var wire 1 S inst91~combout $end
$upscope $end
$upscope $end
$enddefinitions $end
#0
$dumpvars
1!
0"
0#
0$
0%
0&
0'
0(
0)
0*
0+
0,
1-
0.
1/
x0
01
12
x3
14
15
16
17
08
09
1:
0;
0<
0=
0>
0?
0@
0A
1B
0C
1D
1E
0F
0G
0H
0I
0J
0K
0L
1M
1N
0O
0P
1Q
1R
1S
$end
#50000
1%
1)
1A
1J
00
0B
0N
1C
1O
#100000
1$
1(
0%
0)
1@
1K
0A
0J
10
0E
07
1H
19
1I
1P
0S
0Q
0/
1.
#150000
1%
1)
1A
1J
00
1F
1B
0:
1N
0M
18
0H
0C
0I
0O
0P
09
1S
1Q
1/
0.
#200000
1#
1'
0$
0(
0%
0)
1=
1<
0@
0K
0A
0J
10
1E
1:
1M
17
#250000
1%
1)
1A
1J
00
0F
0:
0M
08
#300000
1$
1(
0%
0)
1@
1K
0A
0J
10
0B
0N
1C
1O
#350000
1%
1)
1A
1J
00
1F
0E
1:
1M
18
07
#400000
1"
1&
0#
0'
0$
0(
0%
0)
1?
1L
0=
0<
0@
0K
0A
0J
10
0F
1B
1N
08
1H
0C
0O
19
#450000
1%
1)
1A
1J
00
0B
0:
0N
0M
1C
1O
#500000
1$
1(
0%
0)
1@
1K
0A
0J
10
1B
1N
0C
0O
#550000
1%
1)
1A
1J
00
1F
1E
0B
1:
0N
1M
18
17
0H
1C
1O
09
#600000
1#
1'
0$
0(
0%
0)
1=
1<
0@
0K
0A
0J
10
0E
1B
1N
07
0C
0O
#650000
1%
1)
1A
1J
00
0B
0:
0N
0M
1C
1O
#700000
1$
1(
0%
0)
1@
1K
0A
0J
10
1E
1B
1N
17
0C
0O
#750000
1%
1)
1A
1J
00
0B
0N
1C
1O
#800000
0"
0&
0#
0'
0$
0(
0%
0)
0?
0L
0=
0<
0@
0K
0A
0J
10
0F
1B
1:
1N
1M
08
0C
0O
#850000
1%
1)
1A
1J
00
0B
0N
1C
1O
#900000
1$
1(
0%
0)
1@
1K
0A
0J
10
0E
07
1H
19
1I
1P
0S
0Q
0/
1.
#950000
1%
1)
1A
1J
00
1F
1B
0:
1N
0M
18
0H
0C
0I
0O
0P
09
1S
1Q
1/
0.
